COMPONENTE 05/Rom8/simulation/qsim/rom8.msim.vcd
$comment
	File created using the following command:
		vcd file rom8.msim.vcd -direction
$end
$date
	Sun Dec 03 16:48:44 2017
$end
$version
	ModelSim Version 10.4b
$end
$timescale
	1ps
$end

$scope module rom8_vlg_vec_tst $end
$var reg 4 ! address [3:0] $end
$var wire 1 " data [7] $end
$var wire 1 # data [6] $end
$var wire 1 $ data [5] $end
$var wire 1 % data [4] $end
$var wire 1 & data [3] $end
$var wire 1 ' data [2] $end
$var wire 1 ( data [1] $end
$var wire 1 ) data [0] $end

$scope module i1 $end
$var wire 1 * gnd $end
$var wire 1 + vcc $end
$var wire 1 , unknown $end
$var tri1 1 - devclrn $end
$var tri1 1 . devpor $end
$var tri1 1 / devoe $end
$var wire 1 0 data[0]~output_o $end
$var wire 1 1 data[1]~output_o $end
$var wire 1 2 data[2]~output_o $end
$var wire 1 3 data[3]~output_o $end
$var wire 1 4 data[4]~output_o $end
$var wire 1 5 data[5]~output_o $end
$var wire 1 6 data[6]~output_o $end
$var wire 1 7 data[7]~output_o $end
$var wire 1 8 address[0]~input_o $end
$var wire 1 9 address[1]~input_o $end
$var wire 1 : address[2]~input_o $end
$var wire 1 ; address[3]~input_o $end
$upscope $end
$upscope $end
$enddefinitions $end
#0
$dumpvars
b100 !
0)
0(
1'
0&
0%
0$
0#
0"
0*
1+
x,
1-
1.
1/
00
01
12
03
04
05
06
07
08
09
1:
0;
$end
#1000000
b1100 !
b1000 !
b1010 !
b1011 !
18
19
0:
1;
13
02
11
10
1)
1(
0'
1&
#2000000
b11 !
b111 !
b101 !
b100 !
08
09
1:
0;
03
12
01
00
0)
0(
1'
0&
#3000000
b1100 !
b1000 !
b1010 !
b1011 !
18
19
0:
1;
13
02
11
10
1)
1(
0'
1&
#4000000
b11 !
b111 !
b101 !
b100 !
08
09
1:
0;
03
12
01
00
0)
0(
1'
0&
#5000000
b1100 !
b1000 !
b1010 !
b1011 !
18
19
0:
1;
13
02
11
10
1)
1(
0'
1&
#6000000
b11 !
b111 !
b101 !
b100 !
08
09
1:
0;
03
12
01
00
0)
0(
1'
0&
#7000000
b1100 !
b1000 !
b1010 !
b1011 !
18
19
0:
1;
13
02
11
10
1)
1(
0'
1&
#8000000
b11 !
b111 !
b101 !
b100 !
08
09
1:
0;
03
12
01
00
0)
0(
1'
0&
#9000000
b1100 !
b1000 !
b1010 !
b1011 !
18
19
0:
1;
13
02
11
10
1)
1(
0'
1&
#10000000
b11 !
b111 !
b101 !
b100 !
08
09
1:
0;
03
12
01
00
0)
0(
1'
0&
#11000000
b1100 !
b1000 !
b1010 !
b1011 !
18
19
0:
1;
13
02
11
10
1)
1(
0'
1&
#12000000
b11 !
b111 !
b101 !
b100 !
08
09
1:
0;
03
12
01
00
0)
0(
1'
0&
#13000000
b1100 !
b1000 !
b1010 !
b1011 !
18
19
0:
1;
13
02
11
10
1)
1(
0'
1&
#14000000
b11 !
b111 !
b101 !
b100 !
08
09
1:
0;
03
12
01
00
0)
0(
1'
0&
#15000000
b1100 !
b1000 !
b1010 !
b1011 !
18
19
0:
1;
13
02
11
10
1)
1(
0'
1&
