COMPONENTE 02/mux_4/simulation/qsim/mux.msim.vcd
$comment
	File created using the following command:
		vcd file mux.msim.vcd -direction
$end
$date
	Sat Dec 02 18:58:48 2017
$end
$version
	ModelSim Version 10.4b
$end
$timescale
	1ps
$end

$scope module mux_vlg_vec_tst $end
$var reg 1 ! A $end
$var reg 1 " B $end
$var reg 1 # C $end
$var reg 1 $ D $end
$var reg 2 % S [1:0] $end
$var wire 1 & R $end

$scope module i1 $end
$var wire 1 ' gnd $end
$var wire 1 ( vcc $end
$var wire 1 ) unknown $end
$var tri1 1 * devclrn $end
$var tri1 1 + devpor $end
$var tri1 1 , devoe $end
$var wire 1 - R~output_o $end
$var wire 1 . A~input_o $end
$var wire 1 / B~input_o $end
$var wire 1 0 C~input_o $end
$var wire 1 1 D~input_o $end
$var wire 1 2 S[0]~input_o $end
$var wire 1 3 S[1]~input_o $end
$var wire 1 4 Mux0~0_combout $end
$upscope $end
$upscope $end
$enddefinitions $end
#0
$dumpvars
0!
1"
0#
0$
b1 %
1&
0'
1(
x)
1*
1+
1,
1-
0.
1/
00
01
12
03
14
$end
#500000
1!
0"
b11 %
1.
0/
13
04
0-
0&
#1000000
1#
0!
1"
b1 %
10
0.
1/
03
14
1-
1&
#1500000
1$
b0 %
1!
0"
b10 %
11
02
13
1.
0/
#2000000
0#
0!
1"
b0 %
00
0.
1/
03
04
0-
0&
#2500000
1!
0"
b10 %
1.
0/
13
#3000000
0$
b11 %
1#
0!
1"
b1 %
01
12
03
10
0.
1/
14
1-
1&
#3500000
1!
0"
b11 %
1.
0/
13
04
0-
0&
#4000000
0#
0!
1"
b1 %
00
0.
1/
03
14
1-
1&
#4500000
1$
b0 %
1!
0"
b10 %
11
02
13
1.
0/
04
0-
0&
#5000000
1#
0!
1"
b0 %
10
0.
1/
03
#5500000
1!
0"
b10 %
1.
0/
13
14
1-
1&
#6000000
0$
b11 %
0#
0!
1"
b1 %
01
12
03
00
0.
1/
#6500000
1!
0"
b11 %
1.
0/
13
04
0-
0&
#7000000
1#
0!
1"
b1 %
10
0.
1/
03
14
1-
1&
#7500000
1$
b0 %
1!
0"
b10 %
11
02
13
1.
0/
#8000000
0#
0!
1"
b0 %
00
0.
1/
03
04
0-
0&
#8500000
1!
0"
b10 %
1.
0/
13
#9000000
0$
b11 %
1#
0!
1"
b1 %
01
12
03
10
0.
1/
14
1-
1&
#9500000
1!
0"
b11 %
1.
0/
13
04
0-
0&
#10000000
0#
0!
1"
b1 %
00
0.
1/
03
14
1-
1&
#10500000
1$
b0 %
1!
0"
b10 %
11
02
13
1.
0/
04
0-
0&
#11000000
1#
0!
1"
b0 %
10
0.
1/
03
#11500000
1!
0"
b10 %
1.
0/
13
14
1-
1&
#12000000
0$
b11 %
0#
0!
1"
b1 %
01
12
03
00
0.
1/
#12500000
1!
0"
b11 %
1.
0/
13
04
0-
0&
#13000000
1#
0!
1"
b1 %
10
0.
1/
03
14
1-
1&
#13500000
1$
b0 %
1!
0"
b10 %
11
02
13
1.
0/
#14000000
0#
0!
1"
b0 %
00
0.
1/
03
04
0-
0&
#14500000
1!
0"
b10 %
1.
0/
13
#15000000
0$
b11 %
1#
0!
1"
b1 %
01
12
03
10
0.
1/
14
1-
1&
#15500000
1!
0"
b11 %
1.
0/
13
04
0-
0&
