COMPONENTE 08/somador8/simulation/qsim/somador8.msim.vcd
$comment
	File created using the following command:
		vcd file somador8.msim.vcd -direction
$end
$date
	Sun Dec 03 02:12:52 2017
$end
$version
	ModelSim Version 10.4b
$end
$timescale
	1ps
$end

$scope module somador8_vlg_vec_tst $end
$var reg 8 ! a [7:0] $end
$var reg 8 " b [7:0] $end
$var reg 1 # cin $end
$var wire 1 $ cout $end
$var wire 1 % s [7] $end
$var wire 1 & s [6] $end
$var wire 1 ' s [5] $end
$var wire 1 ( s [4] $end
$var wire 1 ) s [3] $end
$var wire 1 * s [2] $end
$var wire 1 + s [1] $end
$var wire 1 , s [0] $end

$scope module i1 $end
$var wire 1 - gnd $end
$var wire 1 . vcc $end
$var wire 1 / unknown $end
$var tri1 1 0 devclrn $end
$var tri1 1 1 devpor $end
$var tri1 1 2 devoe $end
$var wire 1 3 cout~output_o $end
$var wire 1 4 s[0]~output_o $end
$var wire 1 5 s[1]~output_o $end
$var wire 1 6 s[2]~output_o $end
$var wire 1 7 s[3]~output_o $end
$var wire 1 8 s[4]~output_o $end
$var wire 1 9 s[5]~output_o $end
$var wire 1 : s[6]~output_o $end
$var wire 1 ; s[7]~output_o $end
$var wire 1 < a[7]~input_o $end
$var wire 1 = b[7]~input_o $end
$var wire 1 > a[6]~input_o $end
$var wire 1 ? b[6]~input_o $end
$var wire 1 @ a[5]~input_o $end
$var wire 1 A b[5]~input_o $end
$var wire 1 B a[4]~input_o $end
$var wire 1 C b[4]~input_o $end
$var wire 1 D a[3]~input_o $end
$var wire 1 E b[3]~input_o $end
$var wire 1 F a[2]~input_o $end
$var wire 1 G b[2]~input_o $end
$var wire 1 H a[1]~input_o $end
$var wire 1 I b[1]~input_o $end
$var wire 1 J a[0]~input_o $end
$var wire 1 K b[0]~input_o $end
$var wire 1 L cin~input_o $end
$var wire 1 M c~0_combout $end
$var wire 1 N c~1_combout $end
$var wire 1 O c~2_combout $end
$var wire 1 P c~3_combout $end
$var wire 1 Q soma~0_combout $end
$var wire 1 R soma~1_combout $end
$var wire 1 S soma~2_combout $end
$var wire 1 T soma~3_combout $end
$var wire 1 U c~4_combout $end
$var wire 1 V soma~4_combout $end
$var wire 1 W soma~5_combout $end
$var wire 1 X c~5_combout $end
$var wire 1 Y soma~6_combout $end
$var wire 1 Z soma~7_combout $end
$upscope $end
$upscope $end
$enddefinitions $end
#0
$dumpvars
b101010 !
b0 "
0#
0$
0,
1+
0*
1)
0(
1'
0&
0%
0-
1.
x/
10
11
12
03
04
15
06
17
08
19
0:
0;
0<
0=
0>
0?
1@
0A
0B
0C
1D
0E
0F
0G
1H
0I
0J
0K
0L
0M
0N
0O
0P
0Q
1R
0S
1T
0U
0V
1W
0X
0Y
0Z
$end
#1000000
b10101010 !
b11101010 !
b11001010 !
b11011010 !
b11010010 !
b11010110 !
b11010100 !
b11010101 !
b10000000 "
b11000000 "
b11100000 "
b11110000 "
b11111000 "
b11111100 "
b11111110 "
b11111111 "
1K
1I
1G
1E
1C
1A
1?
1=
1J
0H
1F
0D
1B
0@
1>
1<
1O
1N
1M
1Z
1P
1Y
0W
1V
0T
0R
05
07
18
09
1:
13
1;
1%
1$
1&
0'
1(
0)
0+
1S
16
1*
#2000000
b1010101 !
b10101 !
b110101 !
b100101 !
b101101 !
b101001 !
b101011 !
b101010 !
b1111111 "
b111111 "
b11111 "
b1111 "
b111 "
b11 "
b1 "
b0 "
0K
0I
0G
0E
0C
0A
0?
0=
0J
1H
0F
1D
0B
1@
0>
0<
0O
0N
0M
0Z
0P
0Y
1W
0V
1T
1R
15
17
08
19
0:
03
0;
0%
0$
0&
1'
0(
1)
1+
0S
06
0*
#3000000
b10101010 !
b11101010 !
b11001010 !
b11011010 !
b11010010 !
b11010110 !
b11010100 !
b11010101 !
b10000000 "
b11000000 "
b11100000 "
b11110000 "
b11111000 "
b11111100 "
b11111110 "
b11111111 "
1K
1I
1G
1E
1C
1A
1?
1=
1J
0H
1F
0D
1B
0@
1>
1<
1O
1N
1M
1Z
1P
1Y
0W
1V
0T
0R
05
07
18
09
1:
13
1;
1%
1$
1&
0'
1(
0)
0+
1S
16
1*
#4000000
b1010101 !
b10101 !
b110101 !
b100101 !
b101101 !
b101001 !
b101011 !
b101010 !
b1111111 "
b111111 "
b11111 "
b1111 "
b111 "
b11 "
b1 "
b0 "
0K
0I
0G
0E
0C
0A
0?
0=
0J
1H
0F
1D
0B
1@
0>
0<
0O
0N
0M
0Z
0P
0Y
1W
0V
1T
1R
15
17
08
19
0:
03
0;
0%
0$
0&
1'
0(
1)
1+
0S
06
0*
#5000000
b10101010 !
b11101010 !
b11001010 !
b11011010 !
b11010010 !
b11010110 !
b11010100 !
b11010101 !
b10000000 "
b11000000 "
b11100000 "
b11110000 "
b11111000 "
b11111100 "
b11111110 "
b11111111 "
1K
1I
1G
1E
1C
1A
1?
1=
1J
0H
1F
0D
1B
0@
1>
1<
1O
1N
1M
1Z
1P
1Y
0W
1V
0T
0R
05
07
18
09
1:
13
1;
1%
1$
1&
0'
1(
0)
0+
1S
16
1*
#6000000
b1010101 !
b10101 !
b110101 !
b100101 !
b101101 !
b101001 !
b101011 !
b101010 !
b1111111 "
b111111 "
b11111 "
b1111 "
b111 "
b11 "
b1 "
b0 "
0K
0I
0G
0E
0C
0A
0?
0=
0J
1H
0F
1D
0B
1@
0>
0<
0O
0N
0M
0Z
0P
0Y
1W
0V
1T
1R
15
17
08
19
0:
03
0;
0%
0$
0&
1'
0(
1)
1+
0S
06
0*
#7000000
b10101010 !
b11101010 !
b11001010 !
b11011010 !
b11010010 !
b11010110 !
b11010100 !
b11010101 !
b10000000 "
b11000000 "
b11100000 "
b11110000 "
b11111000 "
b11111100 "
b11111110 "
b11111111 "
1K
1I
1G
1E
1C
1A
1?
1=
1J
0H
1F
0D
1B
0@
1>
1<
1O
1N
1M
1Z
1P
1Y
0W
1V
0T
0R
05
07
18
09
1:
13
1;
1%
1$
1&
0'
1(
0)
0+
1S
16
1*
#8000000
b1010101 !
b10101 !
b110101 !
b100101 !
b101101 !
b101001 !
b101011 !
b101010 !
b1111111 "
b111111 "
b11111 "
b1111 "
b111 "
b11 "
b1 "
b0 "
0K
0I
0G
0E
0C
0A
0?
0=
0J
1H
0F
1D
0B
1@
0>
0<
0O
0N
0M
0Z
0P
0Y
1W
0V
1T
1R
15
17
08
19
0:
03
0;
0%
0$
0&
1'
0(
1)
1+
0S
06
0*
#9000000
b10101010 !
b11101010 !
b11001010 !
b11011010 !
b11010010 !
b11010110 !
b11010100 !
b11010101 !
b10000000 "
b11000000 "
b11100000 "
b11110000 "
b11111000 "
b11111100 "
b11111110 "
b11111111 "
1K
1I
1G
1E
1C
1A
1?
1=
1J
0H
1F
0D
1B
0@
1>
1<
1O
1N
1M
1Z
1P
1Y
0W
1V
0T
0R
05
07
18
09
1:
13
1;
1%
1$
1&
0'
1(
0)
0+
1S
16
1*
#10000000
b1010101 !
b10101 !
b110101 !
b100101 !
b101101 !
b101001 !
b101011 !
b101010 !
b1111111 "
b111111 "
b11111 "
b1111 "
b111 "
b11 "
b1 "
b0 "
0K
0I
0G
0E
0C
0A
0?
0=
0J
1H
0F
1D
0B
1@
0>
0<
0O
0N
0M
0Z
0P
0Y
1W
0V
1T
1R
15
17
08
19
0:
03
0;
0%
0$
0&
1'
0(
1)
1+
0S
06
0*
#11000000
b10101010 !
b11101010 !
b11001010 !
b11011010 !
b11010010 !
b11010110 !
b11010100 !
b11010101 !
b10000000 "
b11000000 "
b11100000 "
b11110000 "
b11111000 "
b11111100 "
b11111110 "
b11111111 "
1K
1I
1G
1E
1C
1A
1?
1=
1J
0H
1F
0D
1B
0@
1>
1<
1O
1N
1M
1Z
1P
1Y
0W
1V
0T
0R
05
07
18
09
1:
13
1;
1%
1$
1&
0'
1(
0)
0+
1S
16
1*
#12000000
b1010101 !
b10101 !
b110101 !
b100101 !
b101101 !
b101001 !
b101011 !
b101010 !
b1111111 "
b111111 "
b11111 "
b1111 "
b111 "
b11 "
b1 "
b0 "
0K
0I
0G
0E
0C
0A
0?
0=
0J
1H
0F
1D
0B
1@
0>
0<
0O
0N
0M
0Z
0P
0Y
1W
0V
1T
1R
15
17
08
19
0:
03
0;
0%
0$
0&
1'
0(
1)
1+
0S
06
0*
#13000000
b10101010 !
b11101010 !
b11001010 !
b11011010 !
b11010010 !
b11010110 !
b11010100 !
b11010101 !
b10000000 "
b11000000 "
b11100000 "
b11110000 "
b11111000 "
b11111100 "
b11111110 "
b11111111 "
1K
1I
1G
1E
1C
1A
1?
1=
1J
0H
1F
0D
1B
0@
1>
1<
1O
1N
1M
1Z
1P
1Y
0W
1V
0T
0R
05
07
18
09
1:
13
1;
1%
1$
1&
0'
1(
0)
0+
1S
16
1*
#14000000
b1010101 !
b10101 !
b110101 !
b100101 !
b101101 !
b101001 !
b101011 !
b101010 !
b1111111 "
b111111 "
b11111 "
b1111 "
b111 "
b11 "
b1 "
b0 "
0K
0I
0G
0E
0C
0A
0?
0=
0J
1H
0F
1D
0B
1@
0>
0<
0O
0N
0M
0Z
0P
0Y
1W
0V
1T
1R
15
17
08
19
0:
03
0;
0%
0$
0&
1'
0(
1)
1+
0S
06
0*
#15000000
b10101010 !
b11101010 !
b11001010 !
b11011010 !
b11010010 !
b11010110 !
b11010100 !
b11010101 !
b10000000 "
b11000000 "
b11100000 "
b11110000 "
b11111000 "
b11111100 "
b11111110 "
b11111111 "
1K
1I
1G
1E
1C
1A
1?
1=
1J
0H
1F
0D
1B
0@
1>
1<
1O
1N
1M
1Z
1P
1Y
0W
1V
0T
0R
05
07
18
09
1:
13
1;
1%
1$
1&
0'
1(
0)
0+
1S
16
1*
