COMPONENTE 12/Maq_est/simulation/qsim/maq_est.msim.vcd
$comment
	File created using the following command:
		vcd file maq_est.msim.vcd -direction
$end
$date
	Tue Dec 05 19:59:22 2017
$end
$version
	ModelSim Version 10.4b
$end
$timescale
	1ps
$end

$scope module maq_est_vlg_vec_tst $end
$var reg 1 ! ck $end
$var reg 1 " iniciar $end
$var reg 1 # P $end
$var wire 1 $ R $end

$scope module i1 $end
$var wire 1 % gnd $end
$var wire 1 & vcc $end
$var wire 1 ' unknown $end
$var tri1 1 ( devclrn $end
$var tri1 1 ) devpor $end
$var tri1 1 * devoe $end
$var wire 1 + R~output_o $end
$var wire 1 , ck~input_o $end
$var wire 1 - P~input_o $end
$var wire 1 . iniciar~input_o $end
$var wire 1 / Selector3~0_combout $end
$var wire 1 0 estado.caso_a~q $end
$var wire 1 1 Selector2~0_combout $end
$var wire 1 2 estado.caso_b~q $end
$var wire 1 3 estado.caso_c~0_combout $end
$var wire 1 4 estado.caso_c~q $end
$var wire 1 5 Selector0~0_combout $end
$var wire 1 6 estado.caso_d~q $end
$upscope $end
$upscope $end
$enddefinitions $end
#0
$dumpvars
0!
0"
0#
0$
0%
1&
x'
1(
1)
1*
0+
0,
0-
0.
0/
00
01
02
03
04
05
06
$end
#500
1#
1-
1/
11
#1000
1!
0#
1,
0-
0/
01
12
10
#1500
1#
1-
1/
13
#2000
0!
0#
0,
0-
0/
03
#2500
1#
1-
1/
13
#3000
1!
0#
1,
0-
0/
03
14
02
13
#3500
1#
1-
1/
15
03
#4000
0!
0#
0,
0-
0/
05
13
#4500
1#
1-
1/
15
03
#5000
1!
0#
1,
0-
0/
05
13
04
16
1+
1/
1$
03
#5500
1#
1-
11
#6000
0!
0#
0,
0-
01
#6500
1#
1-
11
#7000
1!
0#
1,
0-
01
12
06
0+
0/
0$
#7500
1#
1-
1/
13
#8000
0!
0#
0,
0-
0/
03
#8500
1#
1-
1/
13
#9000
1!
0#
1,
0-
0/
03
14
02
13
#9500
1#
1-
1/
15
03
#10000
0!
0#
0,
0-
0/
05
13
#10500
1#
1-
1/
15
03
#11000
1!
0#
1,
0-
0/
05
13
04
16
1+
1/
1$
03
#11500
1#
1-
11
#12000
0!
0#
0,
0-
01
#12500
1#
1-
11
#13000
1!
0#
1,
0-
01
12
06
0+
0/
0$
#13500
1#
1-
1/
13
#14000
0!
0#
0,
0-
0/
03
#14500
1#
1-
1/
13
#15000
1!
0#
1,
0-
0/
03
14
02
13
#15500
1#
1-
1/
15
03
